{
  "content_type": "%(content_type)s",
  "message_id": %(message_id)s,
  "from_user": null,
  "date": %(date)s,
  "chat": null,
  "options": {
    "forward_from_chat": null,
    "forward_from": null,
    "forward_date": null,
    "reply_to_message": null,
    "edit_date": null,
    "media_group_id": null,
    "author_signature": null,
    "text": "%(text)s",
    "entities": [],
    "caption_entities": null,
    "audio": null,
    "document": null,
    "photo": null,
    "sticker": null,
    "video": null,
    "video_note": null,
    "voice": null,
    "caption": null,
    "contact": null,
    "location": null,
    "venue": null,
    "new_chat_member": null,
    "new_chat_members": null,
    "left_chat_member": null,
    "new_chat_title": null,
    "new_chat_photo": null,
    "delete_chat_photo": null,
    "group_chat_created": null,
    "supergroup_chat_created": null,
    "channel_chat_created": null,
    "migrate_to_chat_id": null,
    "migrate_from_chat_id": null,
    "pinned_message": null,
    "invoice": null,
    "successful_payment": null,
    "connected_website": null
  },
  "json_string": {
    "message_id": %(message_id)s,
    "from": {
      "id": %(user_id)s,
      "is_bot": false,
      "last_name": "%(user_last_name)s",
      "first_name": "%(user_first_name)s",
      "username": "%(user_username)s",
      "language_code": "en"
    },
    "chat": {
      "id": %(user_id)s,
      "last_name": "%(user_last_name)s",
      "first_name": "%(user_first_name)s",
      "username": "%(user_username)s",
      "type": "private"
    },
    "date": %(date)s,
    "text": "%(text)s",
    "entities": []
  }
}
